%YAML 1.1
%TAG !u! tag:unity3d.com,2011:
--- !u!29 &1
OcclusionCullingSettings:
  m_ObjectHideFlags: 0
  serializedVersion: 2
  m_OcclusionBakeSettings:
    smallestOccluder: 5
    smallestHole: 0.25
    backfaceThreshold: 100
  m_SceneGUID: 00000000000000000000000000000000
  m_OcclusionCullingData: {fileID: 0}
--- !u!104 &2
RenderSettings:
  m_ObjectHideFlags: 0
  serializedVersion: 8
  m_Fog: 0
  m_FogColor: {r: 0.5, g: 0.5, b: 0.5, a: 1}
  m_FogMode: 3
  m_FogDensity: 0.01
  m_LinearFogStart: 0
  m_LinearFogEnd: 300
  m_AmbientSkyColor: {r: 0.212, g: 0.227, b: 0.259, a: 1}
  m_AmbientEquatorColor: {r: 0.114, g: 0.125, b: 0.133, a: 1}
  m_AmbientGroundColor: {r: 0.047, g: 0.043, b: 0.035, a: 1}
  m_AmbientIntensity: 1
  m_AmbientMode: 0
  m_SubtractiveShadowColor: {r: 0.42, g: 0.478, b: 0.627, a: 1}
  m_SkyboxMaterial: {fileID: 10304, guid: 0000000000000000f000000000000000, type: 0}
  m_HaloStrength: 0.5
  m_FlareStrength: 1
  m_FlareFadeSpeed: 3
  m_HaloTexture: {fileID: 0}
  m_SpotCookie: {fileID: 10001, guid: 0000000000000000e000000000000000, type: 0}
  m_DefaultReflectionMode: 0
  m_DefaultReflectionResolution: 128
  m_ReflectionBounces: 1
  m_ReflectionIntensity: 1
  m_CustomReflection: {fileID: 0}
  m_Sun: {fileID: 0}
  m_IndirectSpecularColor: {r: 0.44361478, g: 0.49293667, b: 0.5725074, a: 1}
--- !u!157 &3
LightmapSettings:
  m_ObjectHideFlags: 0
  serializedVersion: 11
  m_GIWorkflowMode: 1
  m_GISettings:
    serializedVersion: 2
    m_BounceScale: 1
    m_IndirectOutputScale: 1
    m_AlbedoBoost: 1
    m_TemporalCoherenceThreshold: 1
    m_EnvironmentLightingMode: 0
    m_EnableBakedLightmaps: 0
    m_EnableRealtimeLightmaps: 0
  m_LightmapEditorSettings:
    serializedVersion: 9
    m_Resolution: 2
    m_BakeResolution: 40
    m_TextureWidth: 1024
    m_TextureHeight: 1024
    m_AO: 0
    m_AOMaxDistance: 1
    m_CompAOExponent: 0
    m_CompAOExponentDirect: 0
    m_Padding: 2
    m_LightmapParameters: {fileID: 0}
    m_LightmapsBakeMode: 1
    m_TextureCompression: 1
    m_FinalGather: 0
    m_FinalGatherFiltering: 1
    m_FinalGatherRayCount: 1024
    m_ReflectionCompression: 2
    m_MixedBakeMode: 1
    m_BakeBackend: 0
    m_PVRSampling: 1
    m_PVRDirectSampleCount: 32
    m_PVRSampleCount: 500
    m_PVRBounces: 2
    m_PVRFilterTypeDirect: 0
    m_PVRFilterTypeIndirect: 0
    m_PVRFilterTypeAO: 0
    m_PVRFilteringMode: 0
    m_PVRCulling: 1
    m_PVRFilteringGaussRadiusDirect: 1
    m_PVRFilteringGaussRadiusIndirect: 5
    m_PVRFilteringGaussRadiusAO: 2
    m_PVRFilteringAtrousPositionSigmaDirect: 0.5
    m_PVRFilteringAtrousPositionSigmaIndirect: 2
    m_PVRFilteringAtrousPositionSigmaAO: 1
    m_ShowResolutionOverlay: 1
  m_LightingDataAsset: {fileID: 112000001, guid: b7ec6548fe1dce04587a014220744fda,
    type: 2}
  m_UseShadowmask: 0
--- !u!196 &4
NavMeshSettings:
  serializedVersion: 2
  m_ObjectHideFlags: 0
  m_BuildSettings:
    serializedVersion: 2
    agentTypeID: 0
    agentRadius: 0.5
    agentHeight: 2
    agentSlope: 45
    agentClimb: 0.4
    ledgeDropHeight: 0
    maxJumpAcrossDistance: 0
    minRegionArea: 2
    manualCellSize: 0
    cellSize: 0.16666667
    manualTileSize: 0
    tileSize: 256
    accuratePlacement: 0
    debug:
      m_Flags: 0
  m_NavMeshData: {fileID: 0}
--- !u!1 &6443332
GameObject:
  m_ObjectHideFlags: 0
  m_PrefabParentObject: {fileID: 1534167706798416, guid: 0e74cf81e6fd82546b4797f71ceffb81,
    type: 2}
  m_PrefabInternal: {fileID: 1131069246}
  serializedVersion: 5
  m_Component:
  - component: {fileID: 6443333}
  m_Layer: 0
  m_Name: basic_rig Spine1
  m_TagString: Untagged
  m_Icon: {fileID: 0}
  m_NavMeshLayer: 0
  m_StaticEditorFlags: 0
  m_IsActive: 1
--- !u!4 &6443333
Transform:
  m_ObjectHideFlags: 0
  m_PrefabParentObject: {fileID: 4031005102849774, guid: 0e74cf81e6fd82546b4797f71ceffb81,
    type: 2}
  m_PrefabInternal: {fileID: 1131069246}
  m_GameObject: {fileID: 6443332}
  m_LocalRotation: {x: 5.2180482e-14, y: -2.842171e-14, z: -2.910383e-11, w: 1}
  m_LocalPosition: {x: -0.013205651, y: -0.000010515333, z: -2.9165677e-11}
  m_LocalScale: {x: 1, y: 1, z: 0.99999994}
  m_Children:
  - {fileID: 1874978875}
  - {fileID: 1226715207}
  - {fileID: 259928439}
  m_Father: {fileID: 1009387017}
  m_RootOrder: 0
  m_LocalEulerAnglesHint: {x: 0, y: 0, z: 0}
--- !u!1 &36872501
GameObject:
  m_ObjectHideFlags: 0
  m_PrefabParentObject: {fileID: 1807263300820778, guid: 0e74cf81e6fd82546b4797f71ceffb81,
    type: 2}
  m_PrefabInternal: {fileID: 1131069246}
  serializedVersion: 5
  m_Component:
  - component: {fileID: 36872502}
  m_Layer: 0
  m_Name: basic_rig R Toe0
  m_TagString: Untagged
  m_Icon: {fileID: 0}
  m_NavMeshLayer: 0
  m_StaticEditorFlags: 0
  m_IsActive: 1
--- !u!4 &36872502
Transform:
  m_ObjectHideFlags: 0
  m_PrefabParentObject: {fileID: 4305219861629646, guid: 0e74cf81e6fd82546b4797f71ceffb81,
    type: 2}
  m_PrefabInternal: {fileID: 1131069246}
  m_GameObject: {fileID: 36872501}
  m_LocalRotation: {x: 0.000000015454287, y: -0.00000001545432, z: -0.7071068, w: 0.7071068}
  m_LocalPosition: {x: -0.0038557667, y: 0.0038214023, z: 0}
  m_LocalScale: {x: 0.9999999, y: 1, z: 0.99999994}
  m_Children:
  - {fileID: 458138016}
  m_Father: {fileID: 478366994}
  m_RootOrder: 0
  m_LocalEulerAnglesHint: {x: 0, y: 0, z: 0}
--- !u!1 &102510646
GameObject:
  m_ObjectHideFlags: 0
  m_PrefabParentObject: {fileID: 1602877808917320, guid: 0e74cf81e6fd82546b4797f71ceffb81,
    type: 2}
  m_PrefabInternal: {fileID: 1131069246}
  serializedVersion: 5
  m_Component:
  - component: {fileID: 102510647}
  m_Layer: 0
  m_Name: basic_rig L Foot
  m_TagString: Untagged
  m_Icon: {fileID: 0}
  m_NavMeshLayer: 0
  m_StaticEditorFlags: 0
  m_IsActive: 1
--- !u!4 &102510647
Transform:
  m_ObjectHideFlags: 0
  m_PrefabParentObject: {fileID: 4492185259830228, guid: 0e74cf81e6fd82546b4797f71ceffb81,
    type: 2}
  m_PrefabInternal: {fileID: 1131069246}
  m_GameObject: {fileID: 102510646}
  m_LocalRotation: {x: 0.0000129043865, y: 0.008274239, z: -0.119211115, w: 0.99283445}
  m_LocalPosition: {x: -0.011653765, y: -4.768372e-10, z: -4.768372e-10}
  m_LocalScale: {x: 1.0000001, y: 1.0000001, z: 1.0000001}
  m_Children:
  - {fileID: 598392588}
  m_Father: {fileID: 1195463436}
  m_RootOrder: 0
  m_LocalEulerAnglesHint: {x: 0, y: 0, z: 0}
--- !u!1 &203697649
GameObject:
  m_ObjectHideFlags: 0
  m_PrefabParentObject: {fileID: 1064268953378300, guid: 0e74cf81e6fd82546b4797f71ceffb81,
    type: 2}
  m_PrefabInternal: {fileID: 1131069246}
  serializedVersion: 5
  m_Component:
  - component: {fileID: 203697650}
  m_Layer: 0
  m_Name: basic_rig R Thigh
  m_TagString: Untagged
  m_Icon: {fileID: 0}
  m_NavMeshLayer: 0
  m_StaticEditorFlags: 0
  m_IsActive: 1
--- !u!4 &203697650
Transform:
  m_ObjectHideFlags: 0
  m_PrefabParentObject: {fileID: 4485198414577694, guid: 0e74cf81e6fd82546b4797f71ceffb81,
    type: 2}
  m_PrefabInternal: {fileID: 1131069246}
  m_GameObject: {fileID: 203697649}
  m_LocalRotation: {x: 0.004068643, y: 0.9999575, z: 0.000939357, w: -0.008221315}
  m_LocalPosition: {x: -0.000000007629395, y: -0.000000007897616, z: -0.006581991}
  m_LocalScale: {x: 1.0000001, y: 1.0000001, z: 1}
  m_Children:
  - {fileID: 1644706423}
  m_Father: {fileID: 1169111908}
  m_RootOrder: 1
  m_LocalEulerAnglesHint: {x: 0, y: 0, z: 0}
--- !u!1 &259928438
GameObject:
  m_ObjectHideFlags: 0
  m_PrefabParentObject: {fileID: 1829440231550706, guid: 0e74cf81e6fd82546b4797f71ceffb81,
    type: 2}
  m_PrefabInternal: {fileID: 1131069246}
  serializedVersion: 5
  m_Component:
  - component: {fileID: 259928439}
  m_Layer: 0
  m_Name: basic_rig R Clavicle
  m_TagString: Untagged
  m_Icon: {fileID: 0}
  m_NavMeshLayer: 0
  m_StaticEditorFlags: 0
  m_IsActive: 1
--- !u!4 &259928439
Transform:
  m_ObjectHideFlags: 0
  m_PrefabParentObject: {fileID: 4274816860608718, guid: 0e74cf81e6fd82546b4797f71ceffb81,
    type: 2}
  m_PrefabInternal: {fileID: 1131069246}
  m_GameObject: {fileID: 259928438}
  m_LocalRotation: {x: 0.6087614, y: 0.00024138906, z: 0.79335326, w: -0.00031681434}
  m_LocalPosition: {x: -0.009793095, y: -0.0032242143, z: -0.0033819317}
  m_LocalScale: {x: 1, y: 1, z: 0.99999994}
  m_Children:
  - {fileID: 754338594}
  m_Father: {fileID: 6443333}
  m_RootOrder: 2
  m_LocalEulerAnglesHint: {x: 0, y: 0, z: 0}
--- !u!1 &297820006
GameObject:
  m_ObjectHideFlags: 0
  m_PrefabParentObject: {fileID: 1315366263885468, guid: 0e74cf81e6fd82546b4797f71ceffb81,
    type: 2}
  m_PrefabInternal: {fileID: 1131069246}
  serializedVersion: 5
  m_Component:
  - component: {fileID: 297820007}
  m_Layer: 0
  m_Name: Bip001 R Finger1Nub
  m_TagString: Untagged
  m_Icon: {fileID: 0}
  m_NavMeshLayer: 0
  m_StaticEditorFlags: 0
  m_IsActive: 1
--- !u!4 &297820007
Transform:
  m_ObjectHideFlags: 0
  m_PrefabParentObject: {fileID: 4360178750505860, guid: 0e74cf81e6fd82546b4797f71ceffb81,
    type: 2}
  m_PrefabInternal: {fileID: 1131069246}
  m_GameObject: {fileID: 297820006}
  m_LocalRotation: {x: 2.3283063e-10, y: -1.7462301e-10, z: 1, w: 0.00000010430813}
  m_LocalPosition: {x: -0.0026012422, y: 0.0000000038146974, z: 2.384186e-10}
  m_LocalScale: {x: -1, y: -1, z: -1}
  m_Children: []
  m_Father: {fileID: 694468889}
  m_RootOrder: 0
  m_LocalEulerAnglesHint: {x: 0, y: 0, z: 0}
--- !u!1 &335255611
GameObject:
  m_ObjectHideFlags: 0
  m_PrefabParentObject: {fileID: 1075904190936502, guid: 0e74cf81e6fd82546b4797f71ceffb81,
    type: 2}
  m_PrefabInternal: {fileID: 1131069246}
  serializedVersion: 5
  m_Component:
  - component: {fileID: 335255612}
  m_Layer: 0
  m_Name: basic_rig L Finger2
  m_TagString: Untagged
  m_Icon: {fileID: 0}
  m_NavMeshLayer: 0
  m_StaticEditorFlags: 0
  m_IsActive: 1
--- !u!4 &335255612
Transform:
  m_ObjectHideFlags: 0
  m_PrefabParentObject: {fileID: 4796720948132260, guid: 0e74cf81e6fd82546b4797f71ceffb81,
    type: 2}
  m_PrefabInternal: {fileID: 1131069246}
  m_GameObject: {fileID: 335255611}
  m_LocalRotation: {x: -0.00038239313, y: 0.2795932, z: -0.00011128062, w: 0.9601185}
  m_LocalPosition: {x: -0.008257882, y: 0.00015519715, z: 0.0024709883}
  m_LocalScale: {x: 1.0000002, y: 1, z: 1}
  m_Children:
  - {fileID: 1050501565}
  m_Father: {fileID: 693213265}
  m_RootOrder: 2
  m_LocalEulerAnglesHint: {x: 0, y: 0, z: 0}
--- !u!1 &454053541
GameObject:
  m_ObjectHideFlags: 0
  m_PrefabParentObject: {fileID: 1287344469900720, guid: 0e74cf81e6fd82546b4797f71ceffb81,
    type: 2}
  m_PrefabInternal: {fileID: 1131069246}
  serializedVersion: 5
  m_Component:
  - component: {fileID: 454053542}
  m_Layer: 0
  m_Name: basic_rig R Forearm
  m_TagString: Untagged
  m_Icon: {fileID: 0}
  m_NavMeshLayer: 0
  m_StaticEditorFlags: 0
  m_IsActive: 1
--- !u!4 &454053542
Transform:
  m_ObjectHideFlags: 0
  m_PrefabParentObject: {fileID: 4774492193194146, guid: 0e74cf81e6fd82546b4797f71ceffb81,
    type: 2}
  m_PrefabInternal: {fileID: 1131069246}
  m_GameObject: {fileID: 454053541}
  m_LocalRotation: {x: 8.614741e-11, y: 0.000000029805825, z: 0.012733113, w: 0.99991894}
  m_LocalPosition: {x: -0.010840539, y: -4.768372e-10, z: 0}
  m_LocalScale: {x: 1.0000001, y: 0.9999999, z: 1}
  m_Children:
  - {fileID: 2102213924}
  m_Father: {fileID: 754338594}
  m_RootOrder: 0
  m_LocalEulerAnglesHint: {x: 0, y: 0, z: 0}
--- !u!1 &458138015
GameObject:
  m_ObjectHideFlags: 0
  m_PrefabParentObject: {fileID: 1309523306764000, guid: 0e74cf81e6fd82546b4797f71ceffb81,
    type: 2}
  m_PrefabInternal: {fileID: 1131069246}
  serializedVersion: 5
  m_Component:
  - component: {fileID: 458138016}
  m_Layer: 0
  m_Name: Bip001 R Toe0Nub
  m_TagString: Untagged
  m_Icon: {fileID: 0}
  m_NavMeshLayer: 0
  m_StaticEditorFlags: 0
  m_IsActive: 1
--- !u!4 &458138016
Transform:
  m_ObjectHideFlags: 0
  m_PrefabParentObject: {fileID: 4483691309582738, guid: 0e74cf81e6fd82546b4797f71ceffb81,
    type: 2}
  m_PrefabInternal: {fileID: 1131069246}
  m_GameObject: {fileID: 458138015}
  m_LocalRotation: {x: 1.4210856e-14, y: -1.1897933e-13, z: -5.684344e-14, w: 1}
  m_LocalPosition: {x: -0.0029622274, y: 0, z: -4.768372e-10}
  m_LocalScale: {x: 0.9999998, y: 0.99999994, z: 0.9999999}
  m_Children: []
  m_Father: {fileID: 36872502}
  m_RootOrder: 0
  m_LocalEulerAnglesHint: {x: 0, y: 0, z: 0}
--- !u!1 &461905481
GameObject:
  m_ObjectHideFlags: 0
  m_PrefabParentObject: {fileID: 1516323343892540, guid: 0e74cf81e6fd82546b4797f71ceffb81,
    type: 2}
  m_PrefabInternal: {fileID: 1131069246}
  serializedVersion: 5
  m_Component:
  - component: {fileID: 461905482}
  m_Layer: 0
  m_Name: Bip001 L Finger1Nub
  m_TagString: Untagged
  m_Icon: {fileID: 0}
  m_NavMeshLayer: 0
  m_StaticEditorFlags: 0
  m_IsActive: 1
--- !u!4 &461905482
Transform:
  m_ObjectHideFlags: 0
  m_PrefabParentObject: {fileID: 4545816804922006, guid: 0e74cf81e6fd82546b4797f71ceffb81,
    type: 2}
  m_PrefabInternal: {fileID: 1131069246}
  m_GameObject: {fileID: 461905481}
  m_LocalRotation: {x: 1.7462289e-10, y: -0.0000000013969834, z: -0.000000044703466,
    w: 1}
  m_LocalPosition: {x: -0.0026012412, y: -0.0000000038146974, z: -4.768372e-10}
  m_LocalScale: {x: 1.0000002, y: 1.0000001, z: 1.0000001}
  m_Children: []
  m_Father: {fileID: 493167597}
  m_RootOrder: 0
  m_LocalEulerAnglesHint: {x: 0, y: 0, z: 0}
--- !u!1 &478366993
GameObject:
  m_ObjectHideFlags: 0
  m_PrefabParentObject: {fileID: 1353534491142030, guid: 0e74cf81e6fd82546b4797f71ceffb81,
    type: 2}
  m_PrefabInternal: {fileID: 1131069246}
  serializedVersion: 5
  m_Component:
  - component: {fileID: 478366994}
  m_Layer: 0
  m_Name: basic_rig R Foot
  m_TagString: Untagged
  m_Icon: {fileID: 0}
  m_NavMeshLayer: 0
  m_StaticEditorFlags: 0
  m_IsActive: 1
--- !u!4 &478366994
Transform:
  m_ObjectHideFlags: 0
  m_PrefabParentObject: {fileID: 4476206904280286, guid: 0e74cf81e6fd82546b4797f71ceffb81,
    type: 2}
  m_PrefabInternal: {fileID: 1131069246}
  m_GameObject: {fileID: 478366993}
  m_LocalRotation: {x: -0.000013011878, y: -0.008274204, z: -0.11921109, w: 0.9928345}
  m_LocalPosition: {x: -0.011653766, y: 4.768372e-10, z: 0}
  m_LocalScale: {x: 1.0000002, y: 1.0000001, z: 1.0000001}
  m_Children:
  - {fileID: 36872502}
  m_Father: {fileID: 1644706423}
  m_RootOrder: 0
  m_LocalEulerAnglesHint: {x: 0, y: 0, z: 0}
--- !u!1 &493167596
GameObject:
  m_ObjectHideFlags: 0
  m_PrefabParentObject: {fileID: 1321032891429666, guid: 0e74cf81e6fd82546b4797f71ceffb81,
    type: 2}
  m_PrefabInternal: {fileID: 1131069246}
  serializedVersion: 5
  m_Component:
  - component: {fileID: 493167597}
  m_Layer: 0
  m_Name: basic_rig L Finger1
  m_TagString: Untagged
  m_Icon: {fileID: 0}
  m_NavMeshLayer: 0
  m_StaticEditorFlags: 0
  m_IsActive: 1
--- !u!4 &493167597
Transform:
  m_ObjectHideFlags: 0
  m_PrefabParentObject: {fileID: 4902824532813084, guid: 0e74cf81e6fd82546b4797f71ceffb81,
    type: 2}
  m_PrefabInternal: {fileID: 1131069246}
  m_GameObject: {fileID: 493167596}
  m_LocalRotation: {x: -0.00039815914, y: -0.0000000010299386, z: -0.000000044703892,
    w: 0.99999994}
  m_LocalPosition: {x: -0.009509619, y: 0.00013267518, z: -0.0008340397}
  m_LocalScale: {x: 1.0000001, y: 1, z: 1}
  m_Children:
  - {fileID: 461905482}
  m_Father: {fileID: 693213265}
  m_RootOrder: 1
  m_LocalEulerAnglesHint: {x: 0, y: 0, z: 0}
--- !u!1 &584396384
GameObject:
  m_ObjectHideFlags: 0
  m_PrefabParentObject: {fileID: 1826566120413068, guid: 0e74cf81e6fd82546b4797f71ceffb81,
    type: 2}
  m_PrefabInternal: {fileID: 1131069246}
  serializedVersion: 5
  m_Component:
  - component: {fileID: 584396385}
  m_Layer: 0
  m_Name: basic_rig L UpperArm
  m_TagString: Untagged
  m_Icon: {fileID: 0}
  m_NavMeshLayer: 0
  m_StaticEditorFlags: 0
  m_IsActive: 1
--- !u!4 &584396385
Transform:
  m_ObjectHideFlags: 0
  m_PrefabParentObject: {fileID: 4041437732357588, guid: 0e74cf81e6fd82546b4797f71ceffb81,
    type: 2}
  m_PrefabInternal: {fileID: 1131069246}
  m_GameObject: {fileID: 584396384}
  m_LocalRotation: {x: 0.006366947, y: -0.3443608, z: -0.005388389, w: 0.93880033}
  m_LocalPosition: {x: -0.007314854, y: 0, z: 0}
  m_LocalScale: {x: 1.0000001, y: 1.0000002, z: 1.0000002}
  m_Children:
  - {fileID: 1713698562}
  m_Father: {fileID: 1874978875}
  m_RootOrder: 0
  m_LocalEulerAnglesHint: {x: 0, y: 0, z: 0}
--- !u!1 &587266976
GameObject:
  m_ObjectHideFlags: 0
  m_PrefabParentObject: {fileID: 0}
  m_PrefabInternal: {fileID: 0}
  serializedVersion: 5
  m_Component:
  - component: {fileID: 587266981}
  - component: {fileID: 587266980}
  - component: {fileID: 587266979}
  - component: {fileID: 587266978}
  - component: {fileID: 587266977}
  - component: {fileID: 587266982}
  - component: {fileID: 587266983}
  m_Layer: 0
  m_Name: Main Camera
  m_TagString: MainCamera
  m_Icon: {fileID: 0}
  m_NavMeshLayer: 0
  m_StaticEditorFlags: 0
  m_IsActive: 1
--- !u!81 &587266977
AudioListener:
  m_ObjectHideFlags: 0
  m_PrefabParentObject: {fileID: 0}
  m_PrefabInternal: {fileID: 0}
  m_GameObject: {fileID: 587266976}
  m_Enabled: 1
--- !u!124 &587266978
Behaviour:
  m_ObjectHideFlags: 0
  m_PrefabParentObject: {fileID: 0}
  m_PrefabInternal: {fileID: 0}
  m_GameObject: {fileID: 587266976}
  m_Enabled: 1
--- !u!92 &587266979
Behaviour:
  m_ObjectHideFlags: 0
  m_PrefabParentObject: {fileID: 0}
  m_PrefabInternal: {fileID: 0}
  m_GameObject: {fileID: 587266976}
  m_Enabled: 1
--- !u!20 &587266980
Camera:
  m_ObjectHideFlags: 0
  m_PrefabParentObject: {fileID: 0}
  m_PrefabInternal: {fileID: 0}
  m_GameObject: {fileID: 587266976}
  m_Enabled: 1
  serializedVersion: 2
  m_ClearFlags: 1
  m_BackGroundColor: {r: 0.19215687, g: 0.3019608, b: 0.4745098, a: 0.019607844}
  m_NormalizedViewPortRect:
    serializedVersion: 2
    x: 0
    y: 0
    width: 1
    height: 1
  near clip plane: 0.3
  far clip plane: 1000
  field of view: 60
  orthographic: 0
  orthographic size: 5
  m_Depth: -1
  m_CullingMask:
    serializedVersion: 2
    m_Bits: 4294967295
  m_RenderingPath: -1
  m_TargetTexture: {fileID: 0}
  m_TargetDisplay: 0
  m_TargetEye: 3
  m_HDR: 0
  m_AllowMSAA: 1
  m_AllowDynamicResolution: 0
  m_ForceIntoRT: 0
  m_OcclusionCulling: 1
  m_StereoConvergence: 10
  m_StereoSeparation: 0.022
--- !u!4 &587266981
Transform:
  m_ObjectHideFlags: 0
  m_PrefabParentObject: {fileID: 0}
  m_PrefabInternal: {fileID: 0}
  m_GameObject: {fileID: 587266976}
  m_LocalRotation: {x: 0, y: 0, z: 0, w: 1}
  m_LocalPosition: {x: 36.3, y: 1, z: -10}
  m_LocalScale: {x: 1, y: 1, z: 1}
  m_Children: []
  m_Father: {fileID: 0}
  m_RootOrder: 1
  m_LocalEulerAnglesHint: {x: 0, y: 0, z: 0}
--- !u!114 &587266982
MonoBehaviour:
  m_ObjectHideFlags: 0
  m_PrefabParentObject: {fileID: 0}
  m_PrefabInternal: {fileID: 0}
  m_GameObject: {fileID: 587266976}
  m_Enabled: 1
  m_EditorHideFlags: 0
  m_Script: {fileID: 11500000, guid: 2ef0233d4c08b0c4d909da12ddc60082, type: 3}
  m_Name: 
  m_EditorClassIdentifier: 
  m_targets:
  - {fileID: 1131069247}
--- !u!114 &587266983
MonoBehaviour:
  m_ObjectHideFlags: 0
  m_PrefabParentObject: {fileID: 0}
  m_PrefabInternal: {fileID: 0}
  m_GameObject: {fileID: 587266976}
  m_Enabled: 1
  m_EditorHideFlags: 0
  m_Script: {fileID: 11500000, guid: 3165d7738dccac841ad9ce294d36cba5, type: 3}
  m_Name: 
  m_EditorClassIdentifier: 
  m_cameraLogic: {fileID: 587266982}
--- !u!1 &598392587
GameObject:
  m_ObjectHideFlags: 0
  m_PrefabParentObject: {fileID: 1913471402989140, guid: 0e74cf81e6fd82546b4797f71ceffb81,
    type: 2}
  m_PrefabInternal: {fileID: 1131069246}
  serializedVersion: 5
  m_Component:
  - component: {fileID: 598392588}
  m_Layer: 0
  m_Name: basic_rig L Toe0
  m_TagString: Untagged
  m_Icon: {fileID: 0}
  m_NavMeshLayer: 0
  m_StaticEditorFlags: 0
  m_IsActive: 1
--- !u!4 &598392588
Transform:
  m_ObjectHideFlags: 0
  m_PrefabParentObject: {fileID: 4422609705135342, guid: 0e74cf81e6fd82546b4797f71ceffb81,
    type: 2}
  m_PrefabInternal: {fileID: 1131069246}
  m_GameObject: {fileID: 598392587}
  m_LocalRotation: {x: -3.100837e-14, y: -3.1008365e-14, z: -0.7071068, w: 0.7071068}
  m_LocalPosition: {x: -0.0038557672, y: 0.0038214028, z: 9.536744e-10}
  m_LocalScale: {x: 1, y: 1, z: 0.99999994}
  m_Children:
  - {fileID: 2077359585}
  m_Father: {fileID: 102510647}
  m_RootOrder: 0
  m_LocalEulerAnglesHint: {x: 0, y: 0, z: 0}
--- !u!1 &693213264
GameObject:
  m_ObjectHideFlags: 0
  m_PrefabParentObject: {fileID: 1229273601365706, guid: 0e74cf81e6fd82546b4797f71ceffb81,
    type: 2}
  m_PrefabInternal: {fileID: 1131069246}
  serializedVersion: 5
  m_Component:
  - component: {fileID: 693213265}
  m_Layer: 0
  m_Name: basic_rig L Hand
  m_TagString: Untagged
  m_Icon: {fileID: 0}
  m_NavMeshLayer: 0
  m_StaticEditorFlags: 0
  m_IsActive: 1
--- !u!4 &693213265
Transform:
  m_ObjectHideFlags: 0
  m_PrefabParentObject: {fileID: 4574369215894386, guid: 0e74cf81e6fd82546b4797f71ceffb81,
    type: 2}
  m_PrefabInternal: {fileID: 1131069246}
  m_GameObject: {fileID: 693213264}
  m_LocalRotation: {x: -0.7051003, y: -0.049390055, z: -0.049350746, w: 0.7056619}
  m_LocalPosition: {x: -0.011165719, y: 2.384186e-10, z: -0.0000000038146974}
  m_LocalScale: {x: 1, y: 1, z: 0.9999998}
  m_Children:
  - {fileID: 2090112768}
  - {fileID: 493167597}
  - {fileID: 335255612}
  m_Father: {fileID: 1713698562}
  m_RootOrder: 0
  m_LocalEulerAnglesHint: {x: 0, y: 0, z: 0}
--- !u!1 &694468888
GameObject:
  m_ObjectHideFlags: 0
  m_PrefabParentObject: {fileID: 1018530949518274, guid: 0e74cf81e6fd82546b4797f71ceffb81,
    type: 2}
  m_PrefabInternal: {fileID: 1131069246}
  serializedVersion: 5
  m_Component:
  - component: {fileID: 694468889}
  m_Layer: 0
  m_Name: basic_rig R Finger1
  m_TagString: Untagged
  m_Icon: {fileID: 0}
  m_NavMeshLayer: 0
  m_StaticEditorFlags: 0
  m_IsActive: 1
--- !u!4 &694468889
Transform:
  m_ObjectHideFlags: 0
  m_PrefabParentObject: {fileID: 4003795536619236, guid: 0e74cf81e6fd82546b4797f71ceffb81,
    type: 2}
  m_PrefabInternal: {fileID: 1131069246}
  m_GameObject: {fileID: 694468888}
  m_LocalRotation: {x: 0.0003981585, y: 1.10482276e-10, z: -0.000000014901204, w: 0.99999994}
  m_LocalPosition: {x: -0.009509616, y: 0.0001326828, z: 0.00083404046}
  m_LocalScale: {x: 1, y: 1.0000001, z: 1.0000001}
  m_Children:
  - {fileID: 297820007}
  m_Father: {fileID: 2102213924}
  m_RootOrder: 1
  m_LocalEulerAnglesHint: {x: 0, y: 0, z: 0}
--- !u!1 &754338593
GameObject:
  m_ObjectHideFlags: 0
  m_PrefabParentObject: {fileID: 1019036688071192, guid: 0e74cf81e6fd82546b4797f71ceffb81,
    type: 2}
  m_PrefabInternal: {fileID: 1131069246}
  serializedVersion: 5
  m_Component:
  - component: {fileID: 754338594}
  m_Layer: 0
  m_Name: basic_rig UpperArm
  m_TagString: Untagged
  m_Icon: {fileID: 0}
  m_NavMeshLayer: 0
  m_StaticEditorFlags: 0
  m_IsActive: 1
--- !u!4 &754338594
Transform:
  m_ObjectHideFlags: 0
  m_PrefabParentObject: {fileID: 4156331550794092, guid: 0e74cf81e6fd82546b4797f71ceffb81,
    type: 2}
  m_PrefabInternal: {fileID: 1131069246}
  m_GameObject: {fileID: 754338593}
  m_LocalRotation: {x: -0.0063669197, y: 0.3443608, z: -0.005388398, w: 0.9388004}
  m_LocalPosition: {x: -0.007314849, y: 2.384186e-10, z: 0}
  m_LocalScale: {x: 1.0000002, y: 1, z: 1}
  m_Children:
  - {fileID: 454053542}
  m_Father: {fileID: 259928439}
  m_RootOrder: 0
  m_LocalEulerAnglesHint: {x: 0, y: 0, z: 0}
--- !u!1 &864782590
GameObject:
  m_ObjectHideFlags: 0
  m_PrefabParentObject: {fileID: 1901042880743130, guid: 0e74cf81e6fd82546b4797f71ceffb81,
    type: 2}
  m_PrefabInternal: {fileID: 1131069246}
  serializedVersion: 5
  m_Component:
  - component: {fileID: 864782591}
  m_Layer: 0
  m_Name: basic_rig L Thigh
  m_TagString: Untagged
  m_Icon: {fileID: 0}
  m_NavMeshLayer: 0
  m_StaticEditorFlags: 0
  m_IsActive: 1
--- !u!4 &864782591
Transform:
  m_ObjectHideFlags: 0
  m_PrefabParentObject: {fileID: 4558780136451604, guid: 0e74cf81e6fd82546b4797f71ceffb81,
    type: 2}
  m_PrefabInternal: {fileID: 1131069246}
  m_GameObject: {fileID: 864782590}
  m_LocalRotation: {x: 0.0040685353, y: 0.9999575, z: -0.0009407805, w: 0.008219763}
  m_LocalPosition: {x: 0.000000009536744, y: 0.000000010311604, z: 0.0065819896}
  m_LocalScale: {x: 1.0000001, y: 1.0000001, z: 1}
  m_Children:
  - {fileID: 1195463436}
  m_Father: {fileID: 1169111908}
  m_RootOrder: 0
  m_LocalEulerAnglesHint: {x: 0, y: 0, z: 0}
--- !u!1 &931629507
GameObject:
  m_ObjectHideFlags: 0
  m_PrefabParentObject: {fileID: 1242589853018718, guid: 0e74cf81e6fd82546b4797f71ceffb81,
    type: 2}
  m_PrefabInternal: {fileID: 1131069246}
  serializedVersion: 5
  m_Component:
  - component: {fileID: 931629508}
  m_Layer: 0
  m_Name: basic_rig Footsteps
  m_TagString: Untagged
  m_Icon: {fileID: 0}
  m_NavMeshLayer: 0
  m_StaticEditorFlags: 0
  m_IsActive: 1
--- !u!4 &931629508
Transform:
  m_ObjectHideFlags: 0
  m_PrefabParentObject: {fileID: 4381677411552996, guid: 0e74cf81e6fd82546b4797f71ceffb81,
    type: 2}
  m_PrefabInternal: {fileID: 1131069246}
  m_GameObject: {fileID: 931629507}
  m_LocalRotation: {x: 0, y: 0, z: -0.7071063, w: 0.70710725}
  m_LocalPosition: {x: -0, y: 0, z: -0.028020272}
  m_LocalScale: {x: 1, y: 1, z: 1}
  m_Children: []
  m_Father: {fileID: 1466382130}
  m_RootOrder: 0
  m_LocalEulerAnglesHint: {x: 0, y: 0, z: 0}
--- !u!1 &1009387016
GameObject:
  m_ObjectHideFlags: 0
  m_PrefabParentObject: {fileID: 1187937574226472, guid: 0e74cf81e6fd82546b4797f71ceffb81,
    type: 2}
  m_PrefabInternal: {fileID: 1131069246}
  serializedVersion: 5
  m_Component:
  - component: {fileID: 1009387017}
  m_Layer: 0
  m_Name: basic_rig Spine
  m_TagString: Untagged
  m_Icon: {fileID: 0}
  m_NavMeshLayer: 0
  m_StaticEditorFlags: 0
  m_IsActive: 1
--- !u!4 &1009387017
Transform:
  m_ObjectHideFlags: 0
  m_PrefabParentObject: {fileID: 4867029856193572, guid: 0e74cf81e6fd82546b4797f71ceffb81,
    type: 2}
  m_PrefabInternal: {fileID: 1131069246}
  m_GameObject: {fileID: 1009387016}
  m_LocalRotation: {x: -0.000002145482, y: 0.00000071611004, z: -0.000398159, w: 0.99999994}
  m_LocalPosition: {x: -0.0053296303, y: -0.000010513842, z: 0.0000000074057027}
  m_LocalScale: {x: 1, y: 1, z: 0.99999994}
  m_Children:
  - {fileID: 6443333}
  m_Father: {fileID: 1169111908}
  m_RootOrder: 2
  m_LocalEulerAnglesHint: {x: 0, y: 0, z: 0}
--- !u!1 &1050501564
GameObject:
  m_ObjectHideFlags: 0
  m_PrefabParentObject: {fileID: 1491225041547464, guid: 0e74cf81e6fd82546b4797f71ceffb81,
    type: 2}
  m_PrefabInternal: {fileID: 1131069246}
  serializedVersion: 5
  m_Component:
  - component: {fileID: 1050501565}
  m_Layer: 0
  m_Name: Bip001 L Finger2Nub
  m_TagString: Untagged
  m_Icon: {fileID: 0}
  m_NavMeshLayer: 0
  m_StaticEditorFlags: 0
  m_IsActive: 1
--- !u!4 &1050501565
Transform:
  m_ObjectHideFlags: 0
  m_PrefabParentObject: {fileID: 4065764761827694, guid: 0e74cf81e6fd82546b4797f71ceffb81,
    type: 2}
  m_PrefabInternal: {fileID: 1131069246}
  m_GameObject: {fileID: 1050501564}
  m_LocalRotation: {x: -0.000000014901163, y: -0.000000014901167, z: 0.00000002980233,
    w: 1}
  m_LocalPosition: {x: -0.002560773, y: 0, z: 0}
  m_LocalScale: {x: 0.99999976, y: 0.9999998, z: 0.99999994}
  m_Children: []
  m_Father: {fileID: 335255612}
  m_RootOrder: 0
  m_LocalEulerAnglesHint: {x: 0, y: 0, z: 0}
--- !u!1 &1089761141
GameObject:
  m_ObjectHideFlags: 0
  m_PrefabParentObject: {fileID: 0}
  m_PrefabInternal: {fileID: 0}
  serializedVersion: 5
  m_Component:
  - component: {fileID: 1089761143}
  - component: {fileID: 1089761142}
  m_Layer: 0
  m_Name: Directional Light
  m_TagString: Untagged
  m_Icon: {fileID: 0}
  m_NavMeshLayer: 0
  m_StaticEditorFlags: 0
  m_IsActive: 1
--- !u!108 &1089761142
Light:
  m_ObjectHideFlags: 0
  m_PrefabParentObject: {fileID: 0}
  m_PrefabInternal: {fileID: 0}
  m_GameObject: {fileID: 1089761141}
  m_Enabled: 1
  serializedVersion: 8
  m_Type: 1
  m_Color: {r: 0.61764705, g: 0.5672205, b: 0.45869377, a: 1}
  m_Intensity: 1
  m_Range: 10
  m_SpotAngle: 30
  m_CookieSize: 10
  m_Shadows:
    m_Type: 2
    m_Resolution: -1
    m_CustomResolution: -1
    m_Strength: 1
    m_Bias: 0.05
    m_NormalBias: 0.4
    m_NearPlane: 0.2
  m_Cookie: {fileID: 0}
  m_DrawHalo: 0
  m_Flare: {fileID: 0}
  m_RenderMode: 0
  m_CullingMask:
    serializedVersion: 2
    m_Bits: 4294967295
  m_Lightmapping: 4
  m_AreaSize: {x: 1, y: 1}
  m_BounceIntensity: 1
  m_ColorTemperature: 6570
  m_UseColorTemperature: 0
  m_ShadowRadius: 0
  m_ShadowAngle: 0
--- !u!4 &1089761143
Transform:
  m_ObjectHideFlags: 0
  m_PrefabParentObject: {fileID: 0}
  m_PrefabInternal: {fileID: 0}
  m_GameObject: {fileID: 1089761141}
  m_LocalRotation: {x: 0.8492995, y: 0.11367512, z: -0.2038988, w: 0.47349086}
  m_LocalPosition: {x: 36.3, y: 3, z: 0}
  m_LocalScale: {x: 1, y: 1, z: 1}
  m_Children: []
  m_Father: {fileID: 0}
  m_RootOrder: 2
  m_LocalEulerAnglesHint: {x: 0, y: 0, z: 0}
--- !u!1 &1126422656
GameObject:
  m_ObjectHideFlags: 0
  m_PrefabParentObject: {fileID: 1999253007819102, guid: 0e74cf81e6fd82546b4797f71ceffb81,
    type: 2}
  m_PrefabInternal: {fileID: 1131069246}
  serializedVersion: 5
  m_Component:
  - component: {fileID: 1126422657}
  m_Layer: 0
  m_Name: Bip001 HeadNub
  m_TagString: Untagged
  m_Icon: {fileID: 0}
  m_NavMeshLayer: 0
  m_StaticEditorFlags: 0
  m_IsActive: 1
--- !u!4 &1126422657
Transform:
  m_ObjectHideFlags: 0
  m_PrefabParentObject: {fileID: 4188186721381592, guid: 0e74cf81e6fd82546b4797f71ceffb81,
    type: 2}
  m_PrefabInternal: {fileID: 1131069246}
  m_GameObject: {fileID: 1126422656}
  m_LocalRotation: {x: 1.3145042e-13, y: 0, z: -0, w: 1}
  m_LocalPosition: {x: -0.03315734, y: 9.536744e-10, z: -7.275958e-15}
  m_LocalScale: {x: 1, y: 0.99999994, z: 1}
  m_Children: []
  m_Father: {fileID: 2120024742}
  m_RootOrder: 0
  m_LocalEulerAnglesHint: {x: 0, y: 0, z: 0}
--- !u!1001 &1131069246
Prefab:
  m_ObjectHideFlags: 0
  serializedVersion: 2
  m_Modification:
    m_TransformParent: {fileID: 0}
    m_Modifications:
    - target: {fileID: 4549428611729446, guid: 0e74cf81e6fd82546b4797f71ceffb81, type: 2}
      propertyPath: m_LocalPosition.x
      value: 0
      objectReference: {fileID: 0}
    - target: {fileID: 4549428611729446, guid: 0e74cf81e6fd82546b4797f71ceffb81, type: 2}
      propertyPath: m_LocalPosition.y
      value: 0
      objectReference: {fileID: 0}
    - target: {fileID: 4549428611729446, guid: 0e74cf81e6fd82546b4797f71ceffb81, type: 2}
      propertyPath: m_LocalPosition.z
      value: 0
      objectReference: {fileID: 0}
    - target: {fileID: 4549428611729446, guid: 0e74cf81e6fd82546b4797f71ceffb81, type: 2}
      propertyPath: m_LocalRotation.x
      value: 0
      objectReference: {fileID: 0}
    - target: {fileID: 4549428611729446, guid: 0e74cf81e6fd82546b4797f71ceffb81, type: 2}
      propertyPath: m_LocalRotation.y
      value: 0
      objectReference: {fileID: 0}
    - target: {fileID: 4549428611729446, guid: 0e74cf81e6fd82546b4797f71ceffb81, type: 2}
      propertyPath: m_LocalRotation.z
      value: 0
      objectReference: {fileID: 0}
    - target: {fileID: 4549428611729446, guid: 0e74cf81e6fd82546b4797f71ceffb81, type: 2}
      propertyPath: m_LocalRotation.w
      value: 1
      objectReference: {fileID: 0}
    - target: {fileID: 4549428611729446, guid: 0e74cf81e6fd82546b4797f71ceffb81, type: 2}
      propertyPath: m_RootOrder
      value: 0
      objectReference: {fileID: 0}
    m_RemovedComponents: []
  m_ParentPrefab: {fileID: 100100000, guid: 0e74cf81e6fd82546b4797f71ceffb81, type: 2}
  m_RootGameObject: {fileID: 1167959272}
  m_IsPrefabParent: 0
--- !u!4 &1131069247
Transform:
  m_ObjectHideFlags: 0
  m_PrefabParentObject: {fileID: 4549428611729446, guid: 0e74cf81e6fd82546b4797f71ceffb81,
    type: 2}
  m_PrefabInternal: {fileID: 1131069246}
  m_GameObject: {fileID: 1167959272}
  m_LocalRotation: {x: 0, y: 0, z: 0, w: 1}
  m_LocalPosition: {x: 0, y: 0, z: 0}
  m_LocalScale: {x: 1, y: 1, z: 1}
  m_Children:
  - {fileID: 1466382130}
  - {fileID: 1895034937}
  m_Father: {fileID: 0}
  m_RootOrder: 0
  m_LocalEulerAnglesHint: {x: 0, y: 0, z: 0}
--- !u!1 &1167959272
GameObject:
  m_ObjectHideFlags: 0
  m_PrefabParentObject: {fileID: 1824340380413090, guid: 0e74cf81e6fd82546b4797f71ceffb81,
    type: 2}
  m_PrefabInternal: {fileID: 1131069246}
  serializedVersion: 5
  m_Component:
  - component: {fileID: 1131069247}
  - component: {fileID: 1167959276}
  - component: {fileID: 1167959275}
  - component: {fileID: 1167959274}
  - component: {fileID: 1167959273}
  m_Layer: 0
  m_Name: MaleFreeSimpleMovement1
  m_TagString: Untagged
  m_Icon: {fileID: 0}
  m_NavMeshLayer: 0
  m_StaticEditorFlags: 0
  m_IsActive: 1
--- !u!114 &1167959273
MonoBehaviour:
  m_ObjectHideFlags: 0
  m_PrefabParentObject: {fileID: 114018963531894940, guid: 0e74cf81e6fd82546b4797f71ceffb81,
    type: 2}
  m_PrefabInternal: {fileID: 1131069246}
  m_GameObject: {fileID: 1167959272}
  m_Enabled: 1
  m_EditorHideFlags: 0
  m_Script: {fileID: 11500000, guid: 32ca30c36b506c64aafa127f12f968fa, type: 3}
  m_Name: 
  m_EditorClassIdentifier: 
  m_moveSpeed: 2
  m_turnSpeed: 200
  m_jumpForce: 4
  m_animator: {fileID: 1167959274}
  m_rigidBody: {fileID: 1167959276}
  m_controlMode: 0
--- !u!95 &1167959274
Animator:
  serializedVersion: 3
  m_ObjectHideFlags: 0
  m_PrefabParentObject: {fileID: 95665039525092722, guid: 0e74cf81e6fd82546b4797f71ceffb81,
    type: 2}
  m_PrefabInternal: {fileID: 1131069246}
  m_GameObject: {fileID: 1167959272}
  m_Enabled: 1
  m_Avatar: {fileID: 9000000, guid: 45d480461bbdc704587e117329ce8e69, type: 3}
  m_Controller: {fileID: 9100000, guid: f297797635a2b7445ad2ea55cec7353b, type: 2}
  m_CullingMode: 0
  m_UpdateMode: 0
  m_ApplyRootMotion: 0
  m_LinearVelocityBlending: 0
  m_WarningMessage: 
  m_HasTransformHierarchy: 1
  m_AllowConstantClipSamplingOptimization: 1
--- !u!136 &1167959275
CapsuleCollider:
  m_ObjectHideFlags: 0
  m_PrefabParentObject: {fileID: 136606663363984694, guid: 0e74cf81e6fd82546b4797f71ceffb81,
    type: 2}
  m_PrefabInternal: {fileID: 1131069246}
  m_GameObject: {fileID: 1167959272}
  m_Material: {fileID: 0}
  m_IsTrigger: 0
  m_Enabled: 1
  m_Radius: 0.1
  m_Height: 1
  m_Direction: 1
  m_Center: {x: 0, y: 0.5, z: 0}
--- !u!54 &1167959276
Rigidbody:
  m_ObjectHideFlags: 0
  m_PrefabParentObject: {fileID: 54084939265967506, guid: 0e74cf81e6fd82546b4797f71ceffb81,
    type: 2}
  m_PrefabInternal: {fileID: 1131069246}
  m_GameObject: {fileID: 1167959272}
  serializedVersion: 2
  m_Mass: 1
  m_Drag: 0
  m_AngularDrag: 5
  m_UseGravity: 1
  m_IsKinematic: 0
  m_Interpolate: 0
  m_Constraints: 112
  m_CollisionDetection: 0
--- !u!1 &1169111907
GameObject:
  m_ObjectHideFlags: 0
  m_PrefabParentObject: {fileID: 1558264638167218, guid: 0e74cf81e6fd82546b4797f71ceffb81,
    type: 2}
  m_PrefabInternal: {fileID: 1131069246}
  serializedVersion: 5
  m_Component:
  - component: {fileID: 1169111908}
  m_Layer: 0
  m_Name: basic_rig Pelvis
  m_TagString: Untagged
  m_Icon: {fileID: 0}
  m_NavMeshLayer: 0
  m_StaticEditorFlags: 0
  m_IsActive: 1
--- !u!4 &1169111908
Transform:
  m_ObjectHideFlags: 0
  m_PrefabParentObject: {fileID: 4103971337943436, guid: 0e74cf81e6fd82546b4797f71ceffb81,
    type: 2}
  m_PrefabInternal: {fileID: 1131069246}
  m_GameObject: {fileID: 1169111907}
  m_LocalRotation: {x: -0.5, y: 0.5, z: 0.49999937, w: 0.50000066}
  m_LocalPosition: {x: -0, y: 0, z: 0}
  m_LocalScale: {x: 1, y: 0.9999999, z: 0.9999999}
  m_Children:
  - {fileID: 864782591}
  - {fileID: 203697650}
  - {fileID: 1009387017}
  m_Father: {fileID: 1466382130}
  m_RootOrder: 1
  m_LocalEulerAnglesHint: {x: 0, y: 0, z: 0}
--- !u!1 &1195463435
GameObject:
  m_ObjectHideFlags: 0
  m_PrefabParentObject: {fileID: 1383953145636152, guid: 0e74cf81e6fd82546b4797f71ceffb81,
    type: 2}
  m_PrefabInternal: {fileID: 1131069246}
  serializedVersion: 5
  m_Component:
  - component: {fileID: 1195463436}
  m_Layer: 0
  m_Name: basic_rig L Calf
  m_TagString: Untagged
  m_Icon: {fileID: 0}
  m_NavMeshLayer: 0
  m_StaticEditorFlags: 0
  m_IsActive: 1
--- !u!4 &1195463436
Transform:
  m_ObjectHideFlags: 0
  m_PrefabParentObject: {fileID: 4138737997902102, guid: 0e74cf81e6fd82546b4797f71ceffb81,
    type: 2}
  m_PrefabInternal: {fileID: 1131069246}
  m_GameObject: {fileID: 1195463435}
  m_LocalRotation: {x: 4.6256246e-10, y: 5.3632265e-11, z: 0.11517442, w: 0.9933453}
  m_LocalPosition: {x: -0.012845734, y: 5.960465e-11, z: 9.536744e-10}
  m_LocalScale: {x: 1, y: 1.0000001, z: 1.0000001}
  m_Children:
  - {fileID: 102510647}
  m_Father: {fileID: 864782591}
  m_RootOrder: 0
  m_LocalEulerAnglesHint: {x: 0, y: 0, z: 0}
--- !u!1 &1213900379
GameObject:
  m_ObjectHideFlags: 0
  m_PrefabParentObject: {fileID: 1917384423614914, guid: 0e74cf81e6fd82546b4797f71ceffb81,
    type: 2}
  m_PrefabInternal: {fileID: 1131069246}
  serializedVersion: 5
  m_Component:
  - component: {fileID: 1213900380}
  m_Layer: 0
  m_Name: Bip001 L Finger0Nub
  m_TagString: Untagged
  m_Icon: {fileID: 0}
  m_NavMeshLayer: 0
  m_StaticEditorFlags: 0
  m_IsActive: 1
--- !u!4 &1213900380
Transform:
  m_ObjectHideFlags: 0
  m_PrefabParentObject: {fileID: 4608822733328652, guid: 0e74cf81e6fd82546b4797f71ceffb81,
    type: 2}
  m_PrefabInternal: {fileID: 1131069246}
  m_GameObject: {fileID: 1213900379}
  m_LocalRotation: {x: -0.000000007450579, y: -3.3306683e-16, z: 0.000000044703484,
    w: 1}
  m_LocalPosition: {x: -0.0039451947, y: 0, z: 0}
  m_LocalScale: {x: 1, y: 1.0000001, z: 0.99999994}
  m_Children: []
  m_Father: {fileID: 2090112768}
  m_RootOrder: 0
  m_LocalEulerAnglesHint: {x: 0, y: 0, z: 0}
--- !u!1 &1226715206
GameObject:
  m_ObjectHideFlags: 0
  m_PrefabParentObject: {fileID: 1996852250861258, guid: 0e74cf81e6fd82546b4797f71ceffb81,
    type: 2}
  m_PrefabInternal: {fileID: 1131069246}
  serializedVersion: 5
  m_Component:
  - component: {fileID: 1226715207}
  m_Layer: 0
  m_Name: basic_rig Neck
  m_TagString: Untagged
  m_Icon: {fileID: 0}
  m_NavMeshLayer: 0
  m_StaticEditorFlags: 0
  m_IsActive: 1
--- !u!4 &1226715207
Transform:
  m_ObjectHideFlags: 0
  m_PrefabParentObject: {fileID: 4871324995831056, guid: 0e74cf81e6fd82546b4797f71ceffb81,
    type: 2}
  m_PrefabInternal: {fileID: 1131069246}
  m_GameObject: {fileID: 1226715206}
  m_LocalRotation: {x: 0.000000010399563, y: 0.0000002381917, z: -0.043619383, w: 0.99904823}
  m_LocalPosition: {x: -0.013221314, y: -0.0011474581, z: -9.460564e-12}
  m_LocalScale: {x: 1, y: 1, z: 1}
  m_Children:
  - {fileID: 2120024742}
  m_Father: {fileID: 6443333}
  m_RootOrder: 1
  m_LocalEulerAnglesHint: {x: 0, y: 0, z: 0}
--- !u!1 &1398292250
GameObject:
  m_ObjectHideFlags: 0
  m_PrefabParentObject: {fileID: 0}
  m_PrefabInternal: {fileID: 0}
  serializedVersion: 5
  m_Component:
  - component: {fileID: 1398292254}
  - component: {fileID: 1398292253}
  - component: {fileID: 1398292252}
  - component: {fileID: 1398292251}
  m_Layer: 0
  m_Name: Plane
  m_TagString: Untagged
  m_Icon: {fileID: 0}
  m_NavMeshLayer: 0
  m_StaticEditorFlags: 4294967295
  m_IsActive: 1
--- !u!23 &1398292251
MeshRenderer:
  m_ObjectHideFlags: 0
  m_PrefabParentObject: {fileID: 0}
  m_PrefabInternal: {fileID: 0}
  m_GameObject: {fileID: 1398292250}
  m_Enabled: 1
  m_CastShadows: 1
  m_ReceiveShadows: 1
  m_DynamicOccludee: 1
  m_MotionVectors: 1
  m_LightProbeUsage: 1
  m_ReflectionProbeUsage: 1
  m_Materials:
  - {fileID: 10303, guid: 0000000000000000f000000000000000, type: 0}
  m_StaticBatchInfo:
    firstSubMesh: 0
    subMeshCount: 0
  m_StaticBatchRoot: {fileID: 0}
  m_ProbeAnchor: {fileID: 0}
  m_LightProbeVolumeOverride: {fileID: 0}
  m_ScaleInLightmap: 1
  m_PreserveUVs: 1
  m_IgnoreNormalsForChartDetection: 0
  m_ImportantGI: 0
  m_StitchLightmapSeams: 0
  m_SelectedEditorRenderState: 3
  m_MinimumChartSize: 4
  m_AutoUVMaxDistance: 0.5
  m_AutoUVMaxAngle: 89
  m_LightmapParameters: {fileID: 0}
  m_SortingLayerID: 0
  m_SortingLayer: 0
  m_SortingOrder: 0
--- !u!64 &1398292252
MeshCollider:
  m_ObjectHideFlags: 0
  m_PrefabParentObject: {fileID: 0}
  m_PrefabInternal: {fileID: 0}
  m_GameObject: {fileID: 1398292250}
  m_Material: {fileID: 0}
  m_IsTrigger: 0
  m_Enabled: 1
  serializedVersion: 3
  m_Convex: 0
  m_CookingOptions: 14
  m_SkinWidth: 0.01
  m_Mesh: {fileID: 10209, guid: 0000000000000000e000000000000000, type: 0}
--- !u!33 &1398292253
MeshFilter:
  m_ObjectHideFlags: 0
  m_PrefabParentObject: {fileID: 0}
  m_PrefabInternal: {fileID: 0}
  m_GameObject: {fileID: 1398292250}
  m_Mesh: {fileID: 10209, guid: 0000000000000000e000000000000000, type: 0}
--- !u!4 &1398292254
Transform:
  m_ObjectHideFlags: 0
  m_PrefabParentObject: {fileID: 0}
  m_PrefabInternal: {fileID: 0}
  m_GameObject: {fileID: 1398292250}
  m_LocalRotation: {x: 0, y: 0, z: 0, w: 1}
  m_LocalPosition: {x: -34.4, y: 0, z: 0}
  m_LocalScale: {x: 80, y: 1, z: 80}
  m_Children: []
  m_Father: {fileID: 0}
  m_RootOrder: 3
  m_LocalEulerAnglesHint: {x: 0, y: 0, z: 0}
--- !u!1 &1466382129
GameObject:
  m_ObjectHideFlags: 0
  m_PrefabParentObject: {fileID: 1231308336475710, guid: 0e74cf81e6fd82546b4797f71ceffb81,
    type: 2}
  m_PrefabInternal: {fileID: 1131069246}
  serializedVersion: 5
  m_Component:
  - component: {fileID: 1466382130}
  m_Layer: 0
  m_Name: basic_rig
  m_TagString: Untagged
  m_Icon: {fileID: 0}
  m_NavMeshLayer: 0
  m_StaticEditorFlags: 0
  m_IsActive: 1
--- !u!4 &1466382130
Transform:
  m_ObjectHideFlags: 0
  m_PrefabParentObject: {fileID: 4742318452996994, guid: 0e74cf81e6fd82546b4797f71ceffb81,
    type: 2}
  m_PrefabInternal: {fileID: 1131069246}
  m_GameObject: {fileID: 1466382129}
  m_LocalRotation: {x: -0.50000036, y: 0.4999997, z: 0.4999997, w: 0.50000036}
  m_LocalPosition: {x: -5.960465e-10, y: 0.27992857, z: -0.0037423922}
  m_LocalScale: {x: 9.999999, y: 9.999999, z: 10}
  m_Children:
  - {fileID: 931629508}
  - {fileID: 1169111908}
  m_Father: {fileID: 1131069247}
  m_RootOrder: 0
  m_LocalEulerAnglesHint: {x: 0, y: 0, z: 0}
--- !u!1 &1644706422
GameObject:
  m_ObjectHideFlags: 0
  m_PrefabParentObject: {fileID: 1412727719681760, guid: 0e74cf81e6fd82546b4797f71ceffb81,
    type: 2}
  m_PrefabInternal: {fileID: 1131069246}
  serializedVersion: 5
  m_Component:
  - component: {fileID: 1644706423}
  m_Layer: 0
  m_Name: basic_rig R Calf
  m_TagString: Untagged
  m_Icon: {fileID: 0}
  m_NavMeshLayer: 0
  m_StaticEditorFlags: 0
  m_IsActive: 1
--- !u!4 &1644706423
Transform:
  m_ObjectHideFlags: 0
  m_PrefabParentObject: {fileID: 4212069813859702, guid: 0e74cf81e6fd82546b4797f71ceffb81,
    type: 2}
  m_PrefabInternal: {fileID: 1131069246}
  m_GameObject: {fileID: 1644706422}
  m_LocalRotation: {x: 1.0726455e-10, y: -9.25125e-10, z: 0.11517443, w: 0.9933453}
  m_LocalPosition: {x: -0.01284573, y: 0, z: 0}
  m_LocalScale: {x: 1, y: 1.0000001, z: 1}
  m_Children:
  - {fileID: 478366994}
  m_Father: {fileID: 203697650}
  m_RootOrder: 0
  m_LocalEulerAnglesHint: {x: 0, y: 0, z: 0}
--- !u!1 &1652594552
GameObject:
  m_ObjectHideFlags: 0
  m_PrefabParentObject: {fileID: 1641003551899222, guid: 0e74cf81e6fd82546b4797f71ceffb81,
    type: 2}
  m_PrefabInternal: {fileID: 1131069246}
  serializedVersion: 5
  m_Component:
  - component: {fileID: 1652594553}
  m_Layer: 0
  m_Name: basic_rig R Finger2
  m_TagString: Untagged
  m_Icon: {fileID: 0}
  m_NavMeshLayer: 0
  m_StaticEditorFlags: 0
  m_IsActive: 1
--- !u!4 &1652594553
Transform:
  m_ObjectHideFlags: 0
  m_PrefabParentObject: {fileID: 4497705773803510, guid: 0e74cf81e6fd82546b4797f71ceffb81,
    type: 2}
  m_PrefabInternal: {fileID: 1131069246}
  m_GameObject: {fileID: 1652594552}
  m_LocalRotation: {x: 0.0003823035, y: -0.27959302, z: -0.00011124473, w: 0.96011853}
  m_LocalPosition: {x: -0.008257883, y: 0.00015519715, z: -0.0024709878}
  m_LocalScale: {x: 1.0000002, y: 1, z: 1}
  m_Children:
  - {fileID: 1960770413}
  m_Father: {fileID: 2102213924}
  m_RootOrder: 2
  m_LocalEulerAnglesHint: {x: 0, y: 0, z: 0}
--- !u!1 &1713698561
GameObject:
  m_ObjectHideFlags: 0
  m_PrefabParentObject: {fileID: 1445019103936376, guid: 0e74cf81e6fd82546b4797f71ceffb81,
    type: 2}
  m_PrefabInternal: {fileID: 1131069246}
  serializedVersion: 5
  m_Component:
  - component: {fileID: 1713698562}
  m_Layer: 0
  m_Name: basic_rig L Forearm
  m_TagString: Untagged
  m_Icon: {fileID: 0}
  m_NavMeshLayer: 0
  m_StaticEditorFlags: 0
  m_IsActive: 1
--- !u!4 &1713698562
Transform:
  m_ObjectHideFlags: 0
  m_PrefabParentObject: {fileID: 4626267122150998, guid: 0e74cf81e6fd82546b4797f71ceffb81,
    type: 2}
  m_PrefabInternal: {fileID: 1131069246}
  m_GameObject: {fileID: 1713698561}
  m_LocalRotation: {x: -3.6203243e-10, y: -0.00000004471172, z: 0.012733117, w: 0.99991894}
  m_LocalPosition: {x: -0.010840546, y: 0, z: 0}
  m_LocalScale: {x: 0.99999994, y: 1, z: 1}
  m_Children:
  - {fileID: 693213265}
  m_Father: {fileID: 584396385}
  m_RootOrder: 0
  m_LocalEulerAnglesHint: {x: 0, y: 0, z: 0}
--- !u!1 &1874978874
GameObject:
  m_ObjectHideFlags: 0
  m_PrefabParentObject: {fileID: 1611597450915140, guid: 0e74cf81e6fd82546b4797f71ceffb81,
    type: 2}
  m_PrefabInternal: {fileID: 1131069246}
  serializedVersion: 5
  m_Component:
  - component: {fileID: 1874978875}
  m_Layer: 0
  m_Name: basic_rig L Clavicle
  m_TagString: Untagged
  m_Icon: {fileID: 0}
  m_NavMeshLayer: 0
  m_StaticEditorFlags: 0
  m_IsActive: 1
--- !u!4 &1874978875
Transform:
  m_ObjectHideFlags: 0
  m_PrefabParentObject: {fileID: 4204117788712988, guid: 0e74cf81e6fd82546b4797f71ceffb81,
    type: 2}
  m_PrefabInternal: {fileID: 1131069246}
  m_GameObject: {fileID: 1874978874}
  m_LocalRotation: {x: -0.6087614, y: -0.0002435872, z: 0.7933532, w: -0.0003151176}
  m_LocalPosition: {x: -0.009793099, y: -0.0032242318, z: 0.003381915}
  m_LocalScale: {x: 1, y: 1, z: 0.99999994}
  m_Children:
  - {fileID: 584396385}
  m_Father: {fileID: 6443333}
  m_RootOrder: 0
  m_LocalEulerAnglesHint: {x: 0, y: 0, z: 0}
--- !u!1 &1895034936
GameObject:
  m_ObjectHideFlags: 0
  m_PrefabParentObject: {fileID: 1832070036456120, guid: 0e74cf81e6fd82546b4797f71ceffb81,
    type: 2}
  m_PrefabInternal: {fileID: 1131069246}
  serializedVersion: 5
  m_Component:
  - component: {fileID: 1895034937}
  - component: {fileID: 1895034938}
  m_Layer: 0
  m_Name: C_man_1_FBX2013
  m_TagString: Untagged
  m_Icon: {fileID: 0}
  m_NavMeshLayer: 0
  m_StaticEditorFlags: 0
  m_IsActive: 1
--- !u!4 &1895034937
Transform:
  m_ObjectHideFlags: 0
  m_PrefabParentObject: {fileID: 4138921870801644, guid: 0e74cf81e6fd82546b4797f71ceffb81,
    type: 2}
  m_PrefabInternal: {fileID: 1131069246}
  m_GameObject: {fileID: 1895034936}
  m_LocalRotation: {x: -0.7071068, y: 0, z: -0, w: 0.7071068}
  m_LocalPosition: {x: -0, y: 0, z: 0}
  m_LocalScale: {x: 10, y: 10, z: 10}
  m_Children: []
  m_Father: {fileID: 1131069247}
  m_RootOrder: 1
  m_LocalEulerAnglesHint: {x: 0, y: 0, z: 0}
--- !u!137 &1895034938
SkinnedMeshRenderer:
  m_ObjectHideFlags: 0
  m_PrefabParentObject: {fileID: 137001386931196262, guid: 0e74cf81e6fd82546b4797f71ceffb81,
    type: 2}
  m_PrefabInternal: {fileID: 1131069246}
  m_GameObject: {fileID: 1895034936}
  m_Enabled: 1
  m_CastShadows: 1
  m_ReceiveShadows: 1
  m_DynamicOccludee: 1
  m_MotionVectors: 1
  m_LightProbeUsage: 1
  m_ReflectionProbeUsage: 1
  m_Materials:
  - {fileID: 2100000, guid: 8d74c62051dcbe24eb59170e3cceb73e, type: 2}
  - {fileID: 2100000, guid: e639426dff5dcfa40bf254c0ffc5f841, type: 2}
  m_StaticBatchInfo:
    firstSubMesh: 0
    subMeshCount: 0
  m_StaticBatchRoot: {fileID: 0}
  m_ProbeAnchor: {fileID: 0}
  m_LightProbeVolumeOverride: {fileID: 0}
  m_ScaleInLightmap: 1
  m_PreserveUVs: 0
  m_IgnoreNormalsForChartDetection: 0
  m_ImportantGI: 0
  m_StitchLightmapSeams: 0
  m_SelectedEditorRenderState: 3
  m_MinimumChartSize: 4
  m_AutoUVMaxDistance: 0.5
  m_AutoUVMaxAngle: 89
  m_LightmapParameters: {fileID: 0}
  m_SortingLayerID: 0
  m_SortingLayer: 0
  m_SortingOrder: 0
  serializedVersion: 2
  m_Quality: 0
  m_UpdateWhenOffscreen: 0
  m_SkinnedMotionVectors: 1
  m_Mesh: {fileID: 4300000, guid: 461413943bab6ef40aa2a33f18380180, type: 3}
  m_Bones:
  - {fileID: 1009387017}
  - {fileID: 6443333}
  - {fileID: 1874978875}
  - {fileID: 584396385}
  - {fileID: 1169111908}
  - {fileID: 864782591}
  - {fileID: 1195463436}
  - {fileID: 102510647}
  - {fileID: 598392588}
  - {fileID: 1713698562}
  - {fileID: 693213265}
  - {fileID: 2090112768}
  - {fileID: 335255612}
  - {fileID: 493167597}
  - {fileID: 203697650}
  - {fileID: 1644706423}
  - {fileID: 478366994}
  - {fileID: 36872502}
  - {fileID: 259928439}
  - {fileID: 754338594}
  - {fileID: 454053542}
  - {fileID: 2102213924}
  - {fileID: 2127277070}
  - {fileID: 1652594553}
  - {fileID: 694468889}
  - {fileID: 2120024742}
  - {fileID: 1226715207}
  m_BlendShapeWeights: []
  m_RootBone: {fileID: 1169111908}
  m_AABB:
    m_Center: {x: -0.026544098, y: -0.000065948814, z: 0.000000006519258}
    m_Extent: {x: 0.055122387, y: 0.019937018, z: 0.02970102}
  m_DirtyAABB: 0
--- !u!1 &1906888481
GameObject:
  m_ObjectHideFlags: 0
  m_PrefabParentObject: {fileID: 1118482509717822, guid: 0e74cf81e6fd82546b4797f71ceffb81,
    type: 2}
  m_PrefabInternal: {fileID: 1131069246}
  serializedVersion: 5
  m_Component:
  - component: {fileID: 1906888482}
  m_Layer: 0
  m_Name: Bip001 R Finger0Nub
  m_TagString: Untagged
  m_Icon: {fileID: 0}
  m_NavMeshLayer: 0
  m_StaticEditorFlags: 0
  m_IsActive: 1
--- !u!4 &1906888482
Transform:
  m_ObjectHideFlags: 0
  m_PrefabParentObject: {fileID: 4647914454706532, guid: 0e74cf81e6fd82546b4797f71ceffb81,
    type: 2}
  m_PrefabInternal: {fileID: 1131069246}
  m_GameObject: {fileID: 1906888481}
  m_LocalRotation: {x: -0.00000001490116, y: -0.000000007450581, z: 1, w: -0.000000059604645}
  m_LocalPosition: {x: -0.0039451947, y: 0.0000000038146974, z: 0}
  m_LocalScale: {x: -1, y: -1.0000001, z: -0.99999994}
  m_Children: []
  m_Father: {fileID: 2127277070}
  m_RootOrder: 0
  m_LocalEulerAnglesHint: {x: 0, y: 0, z: 0}
--- !u!1 &1960770412
GameObject:
  m_ObjectHideFlags: 0
  m_PrefabParentObject: {fileID: 1560069510012210, guid: 0e74cf81e6fd82546b4797f71ceffb81,
    type: 2}
  m_PrefabInternal: {fileID: 1131069246}
  serializedVersion: 5
  m_Component:
  - component: {fileID: 1960770413}
  m_Layer: 0
  m_Name: Bip001 R Finger2Nub
  m_TagString: Untagged
  m_Icon: {fileID: 0}
  m_NavMeshLayer: 0
  m_StaticEditorFlags: 0
  m_IsActive: 1
--- !u!4 &1960770413
Transform:
  m_ObjectHideFlags: 0
  m_PrefabParentObject: {fileID: 4847653254301724, guid: 0e74cf81e6fd82546b4797f71ceffb81,
    type: 2}
  m_PrefabInternal: {fileID: 1131069246}
  m_GameObject: {fileID: 1960770412}
  m_LocalRotation: {x: -0.000000044703494, y: 0.000000059604645, z: 1, w: -0.000000029802326}
  m_LocalPosition: {x: -0.002560773, y: -0.0000000038146974, z: 0.0000000019073487}
  m_LocalScale: {x: -0.9999999, y: -1, z: -0.9999998}
  m_Children: []
  m_Father: {fileID: 1652594553}
  m_RootOrder: 0
  m_LocalEulerAnglesHint: {x: 0, y: 0, z: 0}
--- !u!1 &2077359584
GameObject:
  m_ObjectHideFlags: 0
  m_PrefabParentObject: {fileID: 1177882186312886, guid: 0e74cf81e6fd82546b4797f71ceffb81,
    type: 2}
  m_PrefabInternal: {fileID: 1131069246}
  serializedVersion: 5
  m_Component:
  - component: {fileID: 2077359585}
  m_Layer: 0
  m_Name: Bip001 L Toe0Nub
  m_TagString: Untagged
  m_Icon: {fileID: 0}
  m_NavMeshLayer: 0
  m_StaticEditorFlags: 0
  m_IsActive: 1
--- !u!4 &2077359585
Transform:
  m_ObjectHideFlags: 0
  m_PrefabParentObject: {fileID: 4619342790010520, guid: 0e74cf81e6fd82546b4797f71ceffb81,
    type: 2}
  m_PrefabInternal: {fileID: 1131069246}
  m_GameObject: {fileID: 2077359584}
  m_LocalRotation: {x: 2.0050202e-13, y: -5.684341e-14, z: 1, w: -0.0000000437114}
  m_LocalPosition: {x: -0.0029622274, y: 0, z: -4.768372e-10}
  m_LocalScale: {x: -0.9999999, y: -1, z: -0.99999994}
  m_Children: []
  m_Father: {fileID: 598392588}
  m_RootOrder: 0
  m_LocalEulerAnglesHint: {x: 0, y: 0, z: 0}
--- !u!1 &2090112767
GameObject:
  m_ObjectHideFlags: 0
  m_PrefabParentObject: {fileID: 1295084253271268, guid: 0e74cf81e6fd82546b4797f71ceffb81,
    type: 2}
  m_PrefabInternal: {fileID: 1131069246}
  serializedVersion: 5
  m_Component:
  - component: {fileID: 2090112768}
  m_Layer: 0
  m_Name: basic_rig L Finger0
  m_TagString: Untagged
  m_Icon: {fileID: 0}
  m_NavMeshLayer: 0
  m_StaticEditorFlags: 0
  m_IsActive: 1
--- !u!4 &2090112768
Transform:
  m_ObjectHideFlags: 0
  m_PrefabParentObject: {fileID: 4879607505646532, guid: 0e74cf81e6fd82546b4797f71ceffb81,
    type: 2}
  m_PrefabInternal: {fileID: 1131069246}
  m_GameObject: {fileID: 2090112767}
  m_LocalRotation: {x: -0.07481247, y: -0.2437212, z: -0.08037572, w: 0.9636093}
  m_LocalPosition: {x: -0.0030959342, y: -0.00052522664, z: -0.0026663537}
  m_LocalScale: {x: 1.0000002, y: 0.99999994, z: 1}
  m_Children:
  - {fileID: 1213900380}
  m_Father: {fileID: 693213265}
  m_RootOrder: 0
  m_LocalEulerAnglesHint: {x: 0, y: 0, z: 0}
--- !u!1 &2102213923
GameObject:
  m_ObjectHideFlags: 0
  m_PrefabParentObject: {fileID: 1361370062763090, guid: 0e74cf81e6fd82546b4797f71ceffb81,
    type: 2}
  m_PrefabInternal: {fileID: 1131069246}
  serializedVersion: 5
  m_Component:
  - component: {fileID: 2102213924}
  m_Layer: 0
  m_Name: basic_rig R Hand
  m_TagString: Untagged
  m_Icon: {fileID: 0}
  m_NavMeshLayer: 0
  m_StaticEditorFlags: 0
  m_IsActive: 1
--- !u!4 &2102213924
Transform:
  m_ObjectHideFlags: 0
  m_PrefabParentObject: {fileID: 4869087274559592, guid: 0e74cf81e6fd82546b4797f71ceffb81,
    type: 2}
  m_PrefabInternal: {fileID: 1131069246}
  m_GameObject: {fileID: 2102213923}
  m_LocalRotation: {x: 0.70510024, y: 0.049390092, z: -0.049350783, w: 0.70566195}
  m_LocalPosition: {x: -0.01116572, y: 4.768372e-10, z: -0.0000000038146974}
  m_LocalScale: {x: 1.0000002, y: 1.0000001, z: 1.0000001}
  m_Children:
  - {fileID: 2127277070}
  - {fileID: 694468889}
  - {fileID: 1652594553}
  m_Father: {fileID: 454053542}
  m_RootOrder: 0
  m_LocalEulerAnglesHint: {x: 0, y: 0, z: 0}
--- !u!1 &2120024741
GameObject:
  m_ObjectHideFlags: 0
  m_PrefabParentObject: {fileID: 1653474441657256, guid: 0e74cf81e6fd82546b4797f71ceffb81,
    type: 2}
  m_PrefabInternal: {fileID: 1131069246}
  serializedVersion: 5
  m_Component:
  - component: {fileID: 2120024742}
  m_Layer: 0
  m_Name: basic_rig Head
  m_TagString: Untagged
  m_Icon: {fileID: 0}
  m_NavMeshLayer: 0
  m_StaticEditorFlags: 0
  m_IsActive: 1
--- !u!4 &2120024742
Transform:
  m_ObjectHideFlags: 0
  m_PrefabParentObject: {fileID: 4154187437372194, guid: 0e74cf81e6fd82546b4797f71ceffb81,
    type: 2}
  m_PrefabInternal: {fileID: 1131069246}
  m_GameObject: {fileID: 2120024741}
  m_LocalRotation: {x: 5.4348203e-13, y: -0.0000000011042405, z: 0.00039887443, w: 0.99999994}
  m_LocalPosition: {x: -0.005142174, y: 0, z: 0}
  m_LocalScale: {x: 0.9999998, y: 0.9999998, z: 0.99999994}
  m_Children:
  - {fileID: 1126422657}
  m_Father: {fileID: 1226715207}
  m_RootOrder: 0
  m_LocalEulerAnglesHint: {x: 0, y: 0, z: 0}
--- !u!1 &2127277069
GameObject:
  m_ObjectHideFlags: 0
  m_PrefabParentObject: {fileID: 1604839165006092, guid: 0e74cf81e6fd82546b4797f71ceffb81,
    type: 2}
  m_PrefabInternal: {fileID: 1131069246}
  serializedVersion: 5
  m_Component:
  - component: {fileID: 2127277070}
  m_Layer: 0
  m_Name: basic_rig R Finger0
  m_TagString: Untagged
  m_Icon: {fileID: 0}
  m_NavMeshLayer: 0
  m_StaticEditorFlags: 0
  m_IsActive: 1
--- !u!4 &2127277070
Transform:
  m_ObjectHideFlags: 0
  m_PrefabParentObject: {fileID: 4909217557025408, guid: 0e74cf81e6fd82546b4797f71ceffb81,
    type: 2}
  m_PrefabInternal: {fileID: 1131069246}
  m_GameObject: {fileID: 2127277069}
  m_LocalRotation: {x: 0.07481256, y: 0.24372108, z: -0.08037574, w: 0.9636093}
  m_LocalPosition: {x: -0.0030959283, y: -0.00052522664, z: 0.0026663549}
  m_LocalScale: {x: 1.0000001, y: 0.99999994, z: 1}
  m_Children:
  - {fileID: 1906888482}
  m_Father: {fileID: 2102213924}
  m_RootOrder: 0
  m_LocalEulerAnglesHint: {x: 0, y: 0, z: 0}
